192.168.192.161    UvH6cEH9VmSOIbDTE4FYHA==
PCS_Auction			qfkWxsETYz6JZX85J5R9zQ==
pcs_app_user		5nZPilr4AXrducW+I5oRBg==

5nZPilr4AXrducW_I5oRBg
Auction11         bUMkyopxhPIh0QR7S5MzQg==



   strpassPhrase = "Pas5pr@se"       ' can be any string
        strsaltValue = "s@1tValue"        ' can be any string
        strhashAlgorithm = "SHA1"         ' can be "MD5"
        intpasswordIterations = 2         ' can be any number
        strinitVector = "@1B2c3D4e5F6g7H8" ' must be 16 bytes
        intkeySize = 256                  ' can be 192 or 128