^C:\BIMAL\EPLANET\AUTOMAIL\CODE\AUTOMAIL\FORM1.RESX|C:\BIMAL\EPLANET\AUTOMAIL\CODE\AUTOMAIL\MY PROJECT\RESOURCES.RESX
C:\BIMAL\EPLANET\AUTOMAIL\CODE\AUTOMAIL\OBJ\X86\DEBUG\AUTOMAIL.FORM1.RESOURCES
C:\BIMAL\EPLANET\AUTOMAIL\CODE\AUTOMAIL\OBJ\X86\DEBUG\AUTOMAIL.RESOURCES.RESOURCES
