hi,

I have created a shape with css but it is not responsive. Please help me how to make this shape responsive with cross browser compatibility.

Here is the code:

    <style type="text/css">
       #main-navigation { display: block; position:relative; clear: both; margin: 0 -10px 0 -10px; padding-bottom:48px; }
              
       hr.flareleft 
    {
     height: 110px;
      width:450px;
      position:absolute;
      margin-top: 118px;
      margin-left:510px;
      border-style: ridge;
      border-color: blue;
      border-width: 2px 0 0 2px;
      border-top-left-radius: 20px;
      behavior: url(ie-css3.htc);
        
     }


    hr.flareright {
      display: block;
      content: "";
      height: 110px;
      width:80px;
      margin-top: 8px;
      margin-left:940px;
      position:absolute;
      border-style: ridge;
      border-color: green;
      border-width: 0 2px 2px 0;
      border-bottom-right-radius: 20px;
      behavior: url(ie-css3.htc);
      
    }

    hr.btm_left 
    {
      height: 110px;
     width:80px;
     position:absolute;
     margin-top:118px;
      margin-left:431px;
      border-style: ridge;
      border-color: brown;
      border-width: 2px 2px 0 0;
      border-top-right-radius: 20px;
      behavior: url(ie-css3.htc);
   
     }


     hr.btm_right {
       display: block;
      content: "";
      height: 110px;
       width:400px;
        margin-top: 8px;
         margin-left:36px;
         position:absolute;
        border-style: ridge;
         border-color: orange;
         border-width: 0 0 2px 2px;
        border-bottom-left-radius: 20px;
        behavior: url(ie-css3.htc);
         
    }


    hr.flare_mdl_left {
       display: block;
      content: "";
       height: 110px;
      width:80px;
      margin-top: 8px;
      margin-left:280px;
      position:absolute;
      border-style: ridge;
      border-color: orange;
      border-width: 0 0 2px 2px;
      border-bottom-left-radius: 20px;
    behavior: url(~/ie-css3.htc);
    
    }

      hr.flare_mdl_right {
        display: block;
       content: "";
       height: 110px;
       width:80px;
        margin-top: 8px;
        margin-left:700px;
        position:absolute;
       border-style:ridge;
        border-color:green;
         border-width:0 2px 2px 0;
        border-bottom-right-radius:20px;
        behavior: url(ie-css3.htc);
  
       }

        </style>
    
        </head>
        <body>
           <!--<hr class="flare" />-->
          <hr class="flareright" />
         <hr class="flareleft" />
          <hr class="flare_mdl_left" />
             <hr class="btm_left" />
         <hr class="flare_mdl_right" />
       <hr class="btm_right" />
            </body>
           


Regards,

Shashikant
